{
    "type":"postgres",
    "host":"localhost",
    "port": 5432,
    "username":"postgres",
    "password":"root",
    "database":"ideas",
    "synchronize": true,
    "logging": true,
    "entities": ["./src/**/*.entity.ts", "./dist/**/*.entity.js"]
}

